…
Here we looked at how *lifestyle indicators* affect diabetes status for
an individual. We considered *smoking status*, *eating habits (fruits
and veggies)*, and *alcohol consumption* for this part.

``` r
# Summary proportion of how lifestyle impacts diabetes status
lifestyle_table <- diabetes_education_level %>% 
  group_by(Diabetes_binary, Fruits, Veggies, HvyAlcoholConsump, Smoker) %>% 
  summarise(n = n()) %>% mutate(freq = n/sum(n))

lifestyle_table
```

    ## # A tibble: 32 × 7
    ## # Groups:   Diabetes_binary, Fruits, Veggies, HvyAlcoholConsump [16]
    ##    Diabetes_binary Fruits Veggies HvyAlcoholConsump Smoker     n  freq
    ##    <fct>           <fct>  <fct>   <fct>             <fct>  <int> <dbl>
    ##  1 Diabetes        0      0       0                 0        877 0.442
    ##  2 Diabetes        0      0       0                 1       1109 0.558
    ##  3 Diabetes        0      0       1                 0         10 0.238
    ##  4 Diabetes        0      0       1                 1         32 0.762
    ##  5 Diabetes        0      1       0                 0       1222 0.424
    ##  6 Diabetes        0      1       0                 1       1660 0.576
    ##  7 Diabetes        0      1       1                 0         22 0.268
    ##  8 Diabetes        0      1       1                 1         60 0.732
    ##  9 Diabetes        1      0       0                 0        622 0.496
    ## 10 Diabetes        1      0       0                 1        633 0.504
    ## # ℹ 22 more rows
…
### Socioeconomic Status on Diabetes Risk

**Socioeconomic** status plays an important role in risk for diabetes.
Here we summarized the impact of *Income* and *AnyHealthcare* on
diabetes_status.

``` r
socioeconomic_table <- diabetes_education_level %>% 
  group_by(Diabetes_binary, Income, AnyHealthcare) %>% 
  summarise(n = n()) %>% mutate(freq = n/sum(n))

socioeconomic_table
```

    ## # A tibble: 32 × 5
    ## # Groups:   Diabetes_binary, Income [16]
    ##    Diabetes_binary Income AnyHealthcare     n   freq
    ##    <fct>           <fct>  <fct>         <int>  <dbl>
    ##  1 Diabetes        1      0                94 0.106 
    ##  2 Diabetes        1      1               789 0.894 
    ##  3 Diabetes        2      0                68 0.0541
    ##  4 Diabetes        2      1              1188 0.946 
    ##  5 Diabetes        3      0                99 0.0652
    ##  6 Diabetes        3      1              1420 0.935 
    ##  7 Diabetes        4      0               106 0.0617
    ##  8 Diabetes        4      1              1611 0.938 
    ##  9 Diabetes        5      0                65 0.0396
    ## 10 Diabetes        5      1              1578 0.960 
    ## # ℹ 22 more rows
…
### Demographics on Diabetes Risk

**Demographics (age and sex)** can have a significant role in the risk
for diabetes. Here we summarized the impact of *Age* and *Sex* on
diabetes_status.

``` r
demographics_table <- diabetes_education_level %>% group_by(Diabetes_binary, Age, Sex) %>% 
  summarise(n = n()) %>% mutate(freq = n/sum(n))

demographics_table
```

    ## # A tibble: 52 × 5
    ## # Groups:   Diabetes_binary, Age [26]
    ##    Diabetes_binary Age   Sex       n  freq
    ##    <fct>           <fct> <fct> <int> <dbl>
    ##  1 Diabetes        1     0        21 0.636
    ##  2 Diabetes        1     1        12 0.364
    ##  3 Diabetes        2     0        20 0.556
    ##  4 Diabetes        2     1        16 0.444
    ##  5 Diabetes        3     0        51 0.593
    ##  6 Diabetes        3     1        35 0.407
    ##  7 Diabetes        4     0        89 0.509
    ##  8 Diabetes        4     1        86 0.491
    ##  9 Diabetes        5     0       136 0.489
    ## 10 Diabetes        5     1       142 0.511
    ## # ℹ 42 more rows
…
