…
Here we looked at how *lifestyle indicators* affect diabetes status for
an individual. We considered *smoking status*, *eating habits (fruits
and veggies)*, and *alcohol consumption* for this part.

``` r
# Summary proportion of how lifestyle impacts diabetes status
lifestyle_table <- diabetes_education_level %>% 
  group_by(Diabetes_binary, Fruits, Veggies, HvyAlcoholConsump, Smoker) %>% 
  summarise(n = n()) %>% mutate(freq = n/sum(n))

lifestyle_table
```

    ## # A tibble: 31 × 7
    ## # Groups:   Diabetes_binary, Fruits, Veggies, HvyAlcoholConsump [16]
    ##    Diabetes_binary Fruits Veggies HvyAlcoholConsump Smoker     n  freq
    ##    <fct>           <fct>  <fct>   <fct>             <fct>  <int> <dbl>
    ##  1 Diabetes        0      0       0                 0        101 0.406
    ##  2 Diabetes        0      0       0                 1        148 0.594
    ##  3 Diabetes        0      0       1                 0          1 0.25 
    ##  4 Diabetes        0      0       1                 1          3 0.75 
    ##  5 Diabetes        0      1       0                 0        133 0.470
    ##  6 Diabetes        0      1       0                 1        150 0.530
    ##  7 Diabetes        0      1       1                 1          2 1    
    ##  8 Diabetes        1      0       0                 0         75 0.5  
    ##  9 Diabetes        1      0       0                 1         75 0.5  
    ## 10 Diabetes        1      0       1                 0          2 0.667
    ## # ℹ 21 more rows
…
### Socioeconomic Status on Diabetes Risk

**Socioeconomic** status plays an important role in risk for diabetes.
Here we summarized the impact of *Income* and *AnyHealthcare* on
diabetes_status.

``` r
socioeconomic_table <- diabetes_education_level %>% 
  group_by(Diabetes_binary, Income, AnyHealthcare) %>% 
  summarise(n = n()) %>% mutate(freq = n/sum(n))

socioeconomic_table
```

    ## # A tibble: 32 × 5
    ## # Groups:   Diabetes_binary, Income [16]
    ##    Diabetes_binary Income AnyHealthcare     n   freq
    ##    <fct>           <fct>  <fct>         <int>  <dbl>
    ##  1 Diabetes        1      0                25 0.0716
    ##  2 Diabetes        1      1               324 0.928 
    ##  3 Diabetes        2      0                25 0.0899
    ##  4 Diabetes        2      1               253 0.910 
    ##  5 Diabetes        3      0                30 0.139 
    ##  6 Diabetes        3      1               186 0.861 
    ##  7 Diabetes        4      0                22 0.147 
    ##  8 Diabetes        4      1               128 0.853 
    ##  9 Diabetes        5      0                15 0.118 
    ## 10 Diabetes        5      1               112 0.882 
    ## # ℹ 22 more rows
…
### Demographics on Diabetes Risk

**Demographics (age and sex)** can have a significant role in the risk
for diabetes. Here we summarized the impact of *Age* and *Sex* on
diabetes_status.

``` r
demographics_table <- diabetes_education_level %>% group_by(Diabetes_binary, Age, Sex) %>% 
  summarise(n = n()) %>% mutate(freq = n/sum(n))

demographics_table
```

    ## # A tibble: 51 × 5
    ## # Groups:   Diabetes_binary, Age [26]
    ##    Diabetes_binary Age   Sex       n  freq
    ##    <fct>           <fct> <fct> <int> <dbl>
    ##  1 Diabetes        1     1         1 1    
    ##  2 Diabetes        2     0         3 0.75 
    ##  3 Diabetes        2     1         1 0.25 
    ##  4 Diabetes        3     0         7 0.778
    ##  5 Diabetes        3     1         2 0.222
    ##  6 Diabetes        4     0         5 0.357
    ##  7 Diabetes        4     1         9 0.643
    ##  8 Diabetes        5     0        12 0.571
    ##  9 Diabetes        5     1         9 0.429
    ## 10 Diabetes        6     0        40 0.625
    ## # ℹ 41 more rows
…
